timeStamp;elapsed;label;responseCode;responseMessage;threadName;dataType;success;failureMessage;bytes;sentBytes;grpThreads;allThreads;URL;Latency;IdleTime;Connect
2021/05/23 16:39:04.672;125;Groovy : Init and check test properties and variables;200;Test plan init OK. [ TEST_ENV=QCenv ] [ STARTED_AT 2021-05-23_16-39-04 ];Setup Thread : init and check test vars 1-1;text;true;;0;0;1;1;null;0;0;0
2021/05/23 16:39:05.002;241;Business Process Type;200;OK;Create From Public 1-1;text;true;;3174;222;1;1;http://cqcehap001.qcenv.idemia.local/eresidency-portal-api/v2/reference-data/businessProcessType;241;0;2
2021/05/23 16:39:05.212;209;RIGHT OF RESIDENCE REQUEST;200;OK;Create From Public 1-1;text;true;;9576;259;1;1;http://cqcehap001.qcenv.idemia.local/eresidency-portal-api/v2/reference-data/businessProcessSubtypesByType/RIGHT_OF_RESIDENCE_REQUEST;189;0;0
2021/05/23 16:39:05.418;205;businessProcessType;200;OK;Create From Public 1-1;text;true;;3174;222;1;1;http://cqcehap001.qcenv.idemia.local/eresidency-portal-api/v2/reference-data/businessProcessType;205;0;0
2021/05/23 16:39:05.627;208;Type Of Multiple Request;200;OK;Create From Public 1-1;text;true;;2010;224;1;1;http://cqcehap001.qcenv.idemia.local/eresidency-portal-api/v2/reference-data/typeOfMultipleRequest;208;0;0
2021/05/23 16:39:05.738;110;Business Process Reasons By Subtype;200;OK;Create From Public 1-1;text;true;;1432;254;1;1;http://cqcehap001.qcenv.idemia.local/eresidency-portal-api/v2/reference-data/businessProcessReasonsBySubtype/ORDINARY_ERESIDENCY;110;0;0
2021/05/23 16:39:05.892;153;individual Doc Types Per Reason REASON_500;200;OK;Create From Public 1-1;text;true;;538;241;1;1;http://cqcehap001.qcenv.idemia.local/eresidency-portal-api/v2/reference-data/individualDocTypesPerReason/REASON_500;153;0;0
2021/05/23 16:39:06.501;608;Application Information;200;OK;Create From Public 1-1;text;true;;4331;376;1;1;http://cqcehap001.qcenv.idemia.local/eresidency-portal-api/v2/eresidency/application-information/nejib@eresidency.gov.eg?typeOfMultipleRequest=FAMILY_WITH_ME&applicationType=RIGHT_OF_RESIDENCE_REQUEST&subTypeId=ORDINARY_ERESIDENCY&reasonId=REASON_500;607;0;0
2021/05/23 16:39:06.595;93;Individual Req;404;Not Found;Create From Public 1-1;text;false;;1946;228;1;1;http://cqcehap001.qcenv.idemia.local/eresidency-portal_frontend/e-residency/application/individual-req;93;0;0
2021/05/23 16:39:06.719;123;Open link;400;Bad Request;Create From Public 1-1;text;false;;157;300;1;1;http://cqcehap001.qcenv.idemia.local/eresidency-portal-api/v2/eresidency/application-information/byReferenceNumberAuthorized/999%2F2021%2F0000293?securityToken=%24%7BToken%7D;123;0;0
2021/05/23 16:39:07.250;530;Country;200;OK;Create From Public 1-1;text;true;;87057;210;1;1;http://cqcehap001.qcenv.idemia.local/eresidency-portal-api/v2/reference-data/country;140;0;0
2021/05/23 16:39:07.347;96;Sex;200;OK;Create From Public 1-1;text;true;;668;206;1;1;http://cqcehap001.qcenv.idemia.local/eresidency-portal-api/v2/reference-data/sex;96;0;0
2021/05/23 16:39:07.481;133;Travel Document Type;200;OK;Create From Public 1-1;text;true;;11440;221;1;1;http://cqcehap001.qcenv.idemia.local/eresidency-portal-api/v2/reference-data/travelDocumentType;99;0;0
2021/05/23 16:39:07.588;106;Questionnaire Models;200;OK;Create From Public 1-1;text;true;;3705;222;1;1;http://cqcehap001.qcenv.idemia.local/eresidency-portal-api/v2/reference-data/questionnaireModels;106;0;0
2021/05/23 16:39:07.663;74;Right Type Of Use;200;OK;Create From Public 1-1;text;true;;312;217;1;1;http://cqcehap001.qcenv.idemia.local/eresidency-portal-api/v2/reference-data/rightTypeOfUse;74;0;0
2021/05/23 16:39:07.735;72;Recommendation Authority;200;OK;Create From Public 1-1;text;true;;792;226;1;1;http://cqcehap001.qcenv.idemia.local/eresidency-portal-api/v2/reference-data/recommendationAuthority;72;0;0
2021/05/23 16:39:07.831;95;RIGHT OF RESIDENCE REQUEST;200;OK;Create From Public 1-1;text;true;;9576;259;1;1;http://cqcehap001.qcenv.idemia.local/eresidency-portal-api/v2/reference-data/businessProcessSubtypesByType/RIGHT_OF_RESIDENCE_REQUEST;89;0;0
2021/05/23 16:39:07.940;108;ORDINARY_ERESIDENCY;200;OK;Create From Public 1-1;text;true;;1432;254;1;1;http://cqcehap001.qcenv.idemia.local/eresidency-portal-api/v2/reference-data/businessProcessReasonsBySubtype/ORDINARY_ERESIDENCY;108;0;0
2021/05/23 16:39:08.042;101;individualDocTypesPerReason;200;OK;Create From Public 1-1;text;true;;538;241;1;1;http://cqcehap001.qcenv.idemia.local/eresidency-portal-api/v2/reference-data/individualDocTypesPerReason/REASON_500;101;0;0
2021/05/23 16:39:08.435;392;country ORDINARY ERESIDENCY;200;OK;Create From Public 1-1;text;true;;87057;239;1;1;http://cqcehap001.qcenv.idemia.local/eresidency-portal-api/v2/reference-data/countryBySubtype/ORDINARY_ERESIDENCY;87;0;0
2021/05/23 16:39:08.535;100;business Process Subtypes ;200;OK;Create From Public 1-1;text;true;;2032;248;1;1;http://cqcehap001.qcenv.idemia.local/eresidency-portal-api/v2/reference-data/businessProcessSubtypesByType/RIGHT_TO_RETURN;100;0;0
2021/05/23 16:39:08.641;105;Business Process Type;200;OK;Create From Public 1-1;text;true;;3174;222;1;1;http://cqcehap001.qcenv.idemia.local/eresidency-portal-api/v2/reference-data/businessProcessType;105;0;0
2021/05/23 16:39:08.722;80;Type Of Multiple Request;200;OK;Create From Public 1-1;text;true;;2010;224;1;1;http://cqcehap001.qcenv.idemia.local/eresidency-portal-api/v2/reference-data/typeOfMultipleRequest;80;0;0
2021/05/23 16:39:08.822;99;Individual Doc Types;200;OK;Create From Public 1-1;text;true;;952;268;1;1;http://cqcehap001.qcenv.idemia.local/eresidency-portal-api/v2/reference-data/individualDocTypesPerReason/RIGHT_TO_RETURN_REQUEST_MULTIPLE_1001;99;0;0
2021/05/23 16:39:08.961;138;Business Process Reasons By Subtype;200;OK;Create From Public 1-1;text;true;;5880;265;1;1;http://cqcehap001.qcenv.idemia.local/eresidency-portal-api/v2/reference-data/businessProcessReasonsBySubtype/RIGHT_TO_RETURN_REQUEST_SINGLE;135;0;0
2021/05/23 16:39:09.418;456;Application Information;200;OK;Create From Public 1-1;text;true;;4583;403;1;1;http://cqcehap001.qcenv.idemia.local/eresidency-portal-api/v2/eresidency/application-information/nejib@eresidency.gov.eg?typeOfMultipleRequest=FAMILY_WITH_ME&applicationType=RIGHT_TO_RETURN&subTypeId=RIGHT_TO_RETURN_REQUEST_SINGLE&reasonId=RIGHT_TO_RETURN_REQUEST_MULTIPLE_1001;455;0;0
2021/05/23 16:39:09.519;101;Individual Req;404;Not Found;Create From Public 1-1;text;false;;1946;228;1;1;http://cqcehap001.qcenv.idemia.local/eresidency-portal_frontend/e-residency/application/individual-req;101;0;0
2021/05/23 16:39:09.770;250;Open link;200;OK;Create From Public 1-1;text;true;;12516;296;1;1;http://cqcehap001.qcenv.idemia.local/eresidency-portal-api/v2/eresidency/application-information/byReferenceNumberAuthorized/999%2F2021%2F0000269?securityToken=1403335610;225;0;0
2021/05/23 16:39:13.327;3556;Governorate And City;200;OK;Create From Public 1-1;text;true;;949251;221;1;1;http://cqcehap001.qcenv.idemia.local/eresidency-portal-api/v2/reference-data/governorateAndCity;224;0;0
2021/05/23 16:39:13.603;275;Port;200;OK;Create From Public 1-1;text;true;;29595;207;1;1;http://cqcehap001.qcenv.idemia.local/eresidency-portal-api/v2/reference-data/port;159;0;0
2021/05/23 16:39:13.744;139;Entrance way;200;OK;Create From Public 1-1;text;true;;1950;214;1;1;http://cqcehap001.qcenv.idemia.local/eresidency-portal-api/v2/reference-data/entranceway;139;0;0
2021/05/23 16:39:14.053;309;Questionnaire Models;200;OK;Create From Public 1-1;text;true;;3705;222;1;1;http://cqcehap001.qcenv.idemia.local/eresidency-portal-api/v2/reference-data/questionnaireModels;309;0;0
2021/05/23 16:39:14.365;311;business Process Subtypes;200;OK;Create From Public 1-1;text;true;;2032;248;1;1;http://cqcehap001.qcenv.idemia.local/eresidency-portal-api/v2/reference-data/businessProcessSubtypesByType/RIGHT_TO_RETURN;311;0;0
2021/05/23 16:39:15.253;887;Business Process Subtypes;200;OK;Create From Public 1-1;text;true;;9576;259;1;1;http://cqcehap001.qcenv.idemia.local/eresidency-portal-api/v2/reference-data/businessProcessSubtypesByType/RIGHT_OF_RESIDENCE_REQUEST;207;0;0
2021/05/23 16:39:15.664;411;Right Type Of Use;200;OK;Create From Public 1-1;text;true;;312;217;1;1;http://cqcehap001.qcenv.idemia.local/eresidency-portal-api/v2/reference-data/rightTypeOfUse;411;0;0
2021/05/23 16:39:15.799;132;Business Process Subtypes;200;OK;Create From Public 1-1;text;true;;2032;248;1;1;http://cqcehap001.qcenv.idemia.local/eresidency-portal-api/v2/reference-data/businessProcessSubtypesByType/RIGHT_TO_RETURN;132;0;0
2021/05/23 16:39:16.268;469;Site;200;OK;Create From Public 1-1;text;true;;72107;222;1;1;http://cqcehap001.qcenv.idemia.local/eresidency-portal-api/v2/reference-data/site?returnAll=true;209;0;0
2021/05/23 16:39:16.478;209;individual Doc Types;200;OK;Create From Public 1-1;text;true;;952;268;1;1;http://cqcehap001.qcenv.idemia.local/eresidency-portal-api/v2/reference-data/individualDocTypesPerReason/RIGHT_TO_RETURN_REQUEST_MULTIPLE_1001;209;0;0
2021/05/23 16:39:16.650;171;businessProcessReasonsBySubtype;200;OK;Create From Public 1-1;text;true;;5880;265;1;1;http://cqcehap001.qcenv.idemia.local/eresidency-portal-api/v2/reference-data/businessProcessReasonsBySubtype/RIGHT_TO_RETURN_REQUEST_SINGLE;149;0;0
2021/05/23 16:39:16.822;171;Individual Doc Types;200;OK;Create From Public 1-1;text;true;;952;268;1;1;http://cqcehap001.qcenv.idemia.local/eresidency-portal-api/v2/reference-data/individualDocTypesPerReason/RIGHT_TO_RETURN_REQUEST_MULTIPLE_1001;170;0;0
2021/05/23 16:39:16.915;93;business Process Subtypes ;200;OK;Create From Public 1-1;text;true;;1060;271;1;1;http://cqcehap001.qcenv.idemia.local/eresidency-portal-api/v2/reference-data/businessProcessSubtypesByType/RIGHT_OF_RESIDENCE_CANCELATION_REQUEST;93;0;0
2021/05/23 16:39:16.998;82;Business Process Type;200;OK;Create From Public 1-1;text;true;;3174;222;1;1;http://cqcehap001.qcenv.idemia.local/eresidency-portal-api/v2/reference-data/businessProcessType;82;0;0
2021/05/23 16:39:17.128;129;Type Of Multiple Request;200;OK;Create From Public 1-1;text;true;;2010;224;1;1;http://cqcehap001.qcenv.idemia.local/eresidency-portal-api/v2/reference-data/typeOfMultipleRequest;129;0;0
2021/05/23 16:39:17.230;101;Type RESIDENCEY CANCELLATION;200;OK;Create From Public 1-1;text;true;;5738;258;1;1;http://cqcehap001.qcenv.idemia.local/eresidency-portal-api/v2/reference-data/businessProcessReasonsBySubtype/RESIDENCEY_CANCELLATION;93;0;0
2021/05/23 16:39:17.369;138;Individual Doc Types;200;OK;Create From Public 1-1;text;true;;560;263;1;1;http://cqcehap001.qcenv.idemia.local/eresidency-portal-api/v2/reference-data/individualDocTypesPerReason/RESIDENCEY_CANCELLATION_REASON_1;138;0;0
2021/05/23 16:39:17.699;329;Application Information;200;OK;Create From Public 1-1;text;true;;4533;414;1;1;http://cqcehap001.qcenv.idemia.local/eresidency-portal-api/v2/eresidency/application-information/nejib@eresidency.gov.eg?typeOfMultipleRequest=FAMILY_WITH_ME&applicationType=RIGHT_OF_RESIDENCE_CANCELATION_REQUEST&subTypeId=RESIDENCEY_CANCELLATION&reasonId=RESIDENCEY_CANCELLATION_REASON_1;329;0;0
2021/05/23 16:39:17.787;87;Individual Req;404;Not Found;Create From Public 1-1;text;false;;1946;228;1;1;http://cqcehap001.qcenv.idemia.local/eresidency-portal_frontend/e-residency/application/individual-req;87;0;0
2021/05/23 16:39:17.961;173;Open link;200;OK;Create From Public 1-1;text;true;;12365;295;1;1;http://cqcehap001.qcenv.idemia.local/eresidency-portal-api/v2/eresidency/application-information/byReferenceNumberAuthorized/999%2F2021%2F0000271?securityToken=499319890;160;0;0
2021/05/23 16:39:18.055;93;Questionnaire Models;200;OK;Create From Public 1-1;text;true;;3705;222;1;1;http://cqcehap001.qcenv.idemia.local/eresidency-portal-api/v2/reference-data/questionnaireModels;93;0;0
2021/05/23 16:39:18.181;125;RIGHT_OF_RESIDENCE_CANCELATION_REQUEST;200;OK;Create From Public 1-1;text;true;;1060;271;1;1;http://cqcehap001.qcenv.idemia.local/eresidency-portal-api/v2/reference-data/businessProcessSubtypesByType/RIGHT_OF_RESIDENCE_CANCELATION_REQUEST;125;0;0
2021/05/23 16:39:18.299;117;Business Process Subtypes ;200;OK;Create From Public 1-1;text;true;;9576;259;1;1;http://cqcehap001.qcenv.idemia.local/eresidency-portal-api/v2/reference-data/businessProcessSubtypesByType/RIGHT_OF_RESIDENCE_REQUEST;103;0;0
2021/05/23 16:39:18.391;92;Right Type Of Use;200;OK;Create From Public 1-1;text;true;;312;217;1;1;http://cqcehap001.qcenv.idemia.local/eresidency-portal-api/v2/reference-data/rightTypeOfUse;92;0;0
2021/05/23 16:39:18.533;141;Business   Process Subtypes;200;OK;Create From Public 1-1;text;true;;1060;271;1;1;http://cqcehap001.qcenv.idemia.local/eresidency-portal-api/v2/reference-data/businessProcessSubtypesByType/RIGHT_OF_RESIDENCE_CANCELATION_REQUEST;140;0;0
2021/05/23 16:39:18.762;229;business Process Reasons;200;OK;Create From Public 1-1;text;true;;5738;258;1;1;http://cqcehap001.qcenv.idemia.local/eresidency-portal-api/v2/reference-data/businessProcessReasonsBySubtype/RESIDENCEY_CANCELLATION;146;0;0
2021/05/23 16:39:18.900;137;individual Doc Types;200;OK;Create From Public 1-1;text;true;;560;263;1;1;http://cqcehap001.qcenv.idemia.local/eresidency-portal-api/v2/reference-data/individualDocTypesPerReason/RESIDENCEY_CANCELLATION_REASON_1;137;0;0
2021/05/23 16:39:19.081;181;business Process Subtypes;200;OK;Create From Public 1-1;text;true;;3854;252;1;1;http://cqcehap001.qcenv.idemia.local/eresidency-portal-api/v2/reference-data/businessProcessSubtypesByType/CERTIFICATE_REQUEST;181;0;0
2021/05/23 16:39:19.197;116;business Process Type;200;OK;Create From Public 1-1;text;true;;3174;222;1;1;http://cqcehap001.qcenv.idemia.local/eresidency-portal-api/v2/reference-data/businessProcessType;116;0;0
2021/05/23 16:39:19.275;77;type Of Multiple Request;200;OK;Create From Public 1-1;text;true;;2010;224;1;1;http://cqcehap001.qcenv.idemia.local/eresidency-portal-api/v2/reference-data/typeOfMultipleRequest;77;0;0
2021/05/23 16:39:19.372;97;Individual Doc Types;200;OK;Create From Public 1-1;text;true;;560;268;1;1;http://cqcehap001.qcenv.idemia.local/eresidency-portal-api/v2/reference-data/individualDocTypesPerReason/CERTIFICATE_OF_FOREIGN_RESIDENCE_DATA;97;0;0
2021/05/23 16:39:19.477;104;business Process Reasons;200;OK;Create From Public 1-1;text;true;;1607;272;1;1;http://cqcehap001.qcenv.idemia.local/eresidency-portal-api/v2/reference-data/businessProcessReasonsBySubtype/CERTIFICATE_OF_FOREIGN_RESIDENCE_DATA;104;0;0
2021/05/23 16:39:19.786;308;Application Information;200;OK;Create From Public 1-1;text;true;;4590;414;1;1;http://cqcehap001.qcenv.idemia.local/eresidency-portal-api/v2/eresidency/application-information/nejib@eresidency.gov.eg?typeOfMultipleRequest=FAMILY_WITH_ME&applicationType=CERTIFICATE_REQUEST&subTypeId=CERTIFICATE_OF_FOREIGN_RESIDENCE_DATA&reasonId=CERTIFICATE_OF_FOREIGN_RESIDENCE_DATA;308;0;0
2021/05/23 16:39:19.857;70;Individual Req;404;Not Found;Create From Public 1-1;text;false;;1946;228;1;1;http://cqcehap001.qcenv.idemia.local/eresidency-portal_frontend/e-residency/application/individual-req;70;0;0
2021/05/23 16:39:20.043;185;Application Information;200;OK;Create From Public 1-1;text;true;;12526;295;1;1;http://cqcehap001.qcenv.idemia.local/eresidency-portal-api/v2/eresidency/application-information/byReferenceNumberAuthorized/999%2F2021%2F0000274?securityToken=805823523;164;0;0
2021/05/23 16:39:21.537;1493;Country;200;OK;Create From Public 1-1;text;true;;87057;210;1;1;http://cqcehap001.qcenv.idemia.local/eresidency-portal-api/v2/reference-data/country;339;0;0
2021/05/23 16:39:21.611;73;Sex;200;OK;Create From Public 1-1;text;true;;668;206;1;1;http://cqcehap001.qcenv.idemia.local/eresidency-portal-api/v2/reference-data/sex;73;0;0
2021/05/23 16:39:21.749;137;Travel Document  Type;200;OK;Create From Public 1-1;text;true;;11440;221;1;1;http://cqcehap001.qcenv.idemia.local/eresidency-portal-api/v2/reference-data/travelDocumentType;110;0;0
2021/05/23 16:39:22.069;319;Country;200;OK;Create From Public 1-1;text;true;;87057;210;1;1;http://cqcehap001.qcenv.idemia.local/eresidency-portal-api/v2/reference-data/country;102;0;0
2021/05/23 16:39:22.170;100;Questionnaire Models;200;OK;Create From Public 1-1;text;true;;3705;222;1;1;http://cqcehap001.qcenv.idemia.local/eresidency-portal-api/v2/reference-data/questionnaireModels;99;0;0
2021/05/23 16:39:22.292;120;Business Process Subtypes;200;OK;Create From Public 1-1;text;true;;3854;252;1;1;http://cqcehap001.qcenv.idemia.local/eresidency-portal-api/v2/reference-data/businessProcessSubtypesByType/CERTIFICATE_REQUEST;120;0;0
2021/05/23 16:39:22.415;122;Business Process;200;OK;Create From Public 1-1;text;true;;9576;259;1;1;http://cqcehap001.qcenv.idemia.local/eresidency-portal-api/v2/reference-data/businessProcessSubtypesByType/RIGHT_OF_RESIDENCE_REQUEST;110;0;0
2021/05/23 16:39:22.730;315;Right Type Of Use;200;OK;Create From Public 1-1;text;true;;312;217;1;1;http://cqcehap001.qcenv.idemia.local/eresidency-portal-api/v2/reference-data/rightTypeOfUse;315;0;0
2021/05/23 16:39:22.845;114;Business Process Subtypes;200;OK;Create From Public 1-1;text;true;;3854;252;1;1;http://cqcehap001.qcenv.idemia.local/eresidency-portal-api/v2/reference-data/businessProcessSubtypesByType/CERTIFICATE_REQUEST;114;0;0
2021/05/23 16:39:22.949;103;Reference data;200;OK;Create From Public 1-1;text;true;;1023;223;1;1;http://cqcehap001.qcenv.idemia.local/eresidency-portal-api/v2/reference-data/authorityCertificate;103;0;0
2021/05/23 16:39:23.090;141;Business Process Reasons;200;OK;Create From Public 1-1;text;true;;1607;272;1;1;http://cqcehap001.qcenv.idemia.local/eresidency-portal-api/v2/reference-data/businessProcessReasonsBySubtype/CERTIFICATE_OF_FOREIGN_RESIDENCE_DATA;140;0;0
2021/05/23 16:39:23.242;152;Individual Doc Types;200;OK;Create From Public 1-1;text;true;;560;268;1;1;http://cqcehap001.qcenv.idemia.local/eresidency-portal-api/v2/reference-data/individualDocTypesPerReason/CERTIFICATE_OF_FOREIGN_RESIDENCE_DATA;152;0;0
2021/05/23 16:39:23.344;101;business Process Subtypes;200;OK;Create From Public 1-1;text;true;;3023;250;1;1;http://cqcehap001.qcenv.idemia.local/eresidency-portal-api/v2/reference-data/businessProcessSubtypesByType/FOLLOWERS_REQUEST;100;0;0
2021/05/23 16:39:23.439;95;business Process Type;200;OK;Create From Public 1-1;text;true;;3174;222;1;1;http://cqcehap001.qcenv.idemia.local/eresidency-portal-api/v2/reference-data/businessProcessType;95;0;0
2021/05/23 16:39:23.597;157;Type Of Multiple Request;200;OK;Create From Public 1-1;text;true;;2010;224;1;1;http://cqcehap001.qcenv.idemia.local/eresidency-portal-api/v2/reference-data/typeOfMultipleRequest;157;0;0
2021/05/23 16:39:23.702;105;business Process Reasons;200;OK;Create From Public 1-1;text;true;;3085;281;1;1;http://cqcehap001.qcenv.idemia.local/eresidency-portal-api/v2/reference-data/businessProcessReasonsBySubtype/FOLLOWERS_REQUEST_FOR_SPONSORSHIP_CANCELLATION;105;0;0
2021/05/23 16:39:24.008;306;Application Information;200;OK;Create From Public 1-1;text;true;;4688;413;1;1;http://cqcehap001.qcenv.idemia.local/eresidency-portal-api/v2/eresidency/application-information/nejib@eresidency.gov.eg?typeOfMultipleRequest=GROUP&applicationType=FOLLOWERS_REQUEST&subTypeId=FOLLOWERS_REQUEST_FOR_SPONSORSHIP_TRANSFER&reasonId=FOLLOWERS_REQUEST_FOR_SPONSORSHIP_TRANSFER;306;0;0
2021/05/23 16:39:24.115;107;Business Process Subtypes;200;OK;Create From Public 1-1;text;true;;1004;252;1;1;http://cqcehap001.qcenv.idemia.local/eresidency-portal-api/v2/reference-data/businessProcessSubtypesByType/PERMISSION_TO_LEAVE;107;0;0
2021/05/23 16:39:24.246;131;Business Process Type;200;OK;Create From Public 1-1;text;true;;3174;222;1;1;http://cqcehap001.qcenv.idemia.local/eresidency-portal-api/v2/reference-data/businessProcessType;131;0;0
2021/05/23 16:39:24.341;94;Type Of Multiple Request;200;OK;Create From Public 1-1;text;true;;2010;224;1;1;http://cqcehap001.qcenv.idemia.local/eresidency-portal-api/v2/reference-data/typeOfMultipleRequest;94;0;0
2021/05/23 16:39:24.451;109;Business Process Reasons BySubtype;200;OK;Create From Public 1-1;text;true;;6542;254;1;1;http://cqcehap001.qcenv.idemia.local/eresidency-portal-api/v2/reference-data/businessProcessReasonsBySubtype/PERMISSION_TO_LEAVE;94;0;0
2021/05/23 16:39:24.551;100;Individual Doc Types;200;OK;Create From Public 1-1;text;true;;1330;237;1;1;http://cqcehap001.qcenv.idemia.local/eresidency-portal-api/v2/reference-data/individualDocTypesPerReason/CURING;100;0;0
2021/05/23 16:39:24.823;271;Application Information;200;OK;Create From Public 1-1;text;true;;4335;365;1;1;http://cqcehap001.qcenv.idemia.local/eresidency-portal-api/v2/eresidency/application-information/nejib@eresidency.gov.eg?typeOfMultipleRequest=FAMILY_WITH_ME&applicationType=PERMISSION_TO_LEAVE&subTypeId=PERMISSION_TO_LEAVE&reasonId=CURING;271;0;0
2021/05/23 16:39:24.905;81;Individual Req;404;Not Found;Create From Public 1-1;text;false;;1946;228;1;1;http://cqcehap001.qcenv.idemia.local/eresidency-portal_frontend/e-residency/application/individual-req;81;0;0
2021/05/23 16:39:25.135;229;Open link;200;OK;Create From Public 1-1;text;true;;12004;296;1;1;http://cqcehap001.qcenv.idemia.local/eresidency-portal-api/v2/eresidency/application-information/byReferenceNumberAuthorized/999%2F2021%2F0000277?securityToken=1391365206;206;0;0
2021/05/23 16:39:25.233;98;Questionnaire Models;200;OK;Create From Public 1-1;text;true;;3705;222;1;1;http://cqcehap001.qcenv.idemia.local/eresidency-portal-api/v2/reference-data/questionnaireModels;98;0;0
2021/05/23 16:39:25.448;214;Business Process Subtypes;200;OK;Create From Public 1-1;text;true;;1004;252;1;1;http://cqcehap001.qcenv.idemia.local/eresidency-portal-api/v2/reference-data/businessProcessSubtypesByType/PERMISSION_TO_LEAVE;213;0;0
2021/05/23 16:39:25.706;258;Business Process Subtypes;200;OK;Create From Public 1-1;text;true;;9576;259;1;1;http://cqcehap001.qcenv.idemia.local/eresidency-portal-api/v2/reference-data/businessProcessSubtypesByType/RIGHT_OF_RESIDENCE_REQUEST;180;0;0
2021/05/23 16:39:25.851;145;Reference data;200;OK;Create From Public 1-1;text;true;;312;217;1;1;http://cqcehap001.qcenv.idemia.local/eresidency-portal-api/v2/reference-data/rightTypeOfUse;145;0;0
2021/05/23 16:39:25.952;100;Business Process Subtypes;200;OK;Create From Public 1-1;text;true;;1004;252;1;1;http://cqcehap001.qcenv.idemia.local/eresidency-portal-api/v2/reference-data/businessProcessSubtypesByType/PERMISSION_TO_LEAVE;100;0;0
2021/05/23 16:39:26.126;174;Business Process Reasons;200;OK;Create From Public 1-1;text;true;;6542;254;1;1;http://cqcehap001.qcenv.idemia.local/eresidency-portal-api/v2/reference-data/businessProcessReasonsBySubtype/PERMISSION_TO_LEAVE;168;0;0
2021/05/23 16:39:26.231;104;individual Doc Types;200;OK;Create From Public 1-1;text;true;;1330;237;1;1;http://cqcehap001.qcenv.idemia.local/eresidency-portal-api/v2/reference-data/individualDocTypesPerReason/CURING;104;0;0
